GED

	Undo Commands
	     1.	Update Symbol or Block
	     2.	Update Symbol or Block
	     3.	Update Symbol or Block
	     4.	Delete
	     5.	Delete
	     6.	Insert Bus
	     7.	Insert Bus
	     8.	Insert Bus
	     9.	Insert Bus
	    10.	Insert Bus
	    11.	Insert Bus
	    12.	Insert Bus
	    13.	Insert Bus
	    14.	Insert Bus
	    15.	Insert Bus
	    16.	Insert Bus
	    17.	Insert Node
	    18.	Insert Node
	    19.	Insert Node
	    20.	Insert Node
	    21.	Delete Insert
	    22.	Properties
	    23.	Properties
	    24.	Properties
	    25.	Properties
	    26.	Properties
	    27.	Properties
	    28.	Properties
	    29.	Properties
	    30.	Properties
	    31.	Properties
	    32.	Properties
	    33.	Properties
	    34.	Copy
	    35.	Copy
	    36.	Copy
	    37.	Move
	    38.	Properties
	    39.	Properties
	    40.	Copy
	    41.	Move
	    42.	Properties
	    43.	Insert Bus
	    44.	Move
	    45.	Move
	    46.	Move
	    47.	Move
	    48.	Move
	    49.	Move
	    50.	Insert Bus
	    51.	Move
	    52.	Insert Node
	    53.	Insert Bus
	    54.	Insert Bus
	    55.	Insert Bus
	    56.	Insert Bus
	    57.	Move
	    58.	Copy
	    59.	Insert Bus
	    60.	Insert Bus
	    61.	Insert Bus
	    62.	Move
	    63.	Move
	    64.	Copy
	    65.	Move
	    66.	Move
	    67.	Move
	    68.	Move
	    69.	Move
	    70.	Move
	    71.	Move
	    72.	Move
	    73.	Move
	    74.	Flip Vertical
	    75.	Insert Symbol
	    76.	Insert Bus
	    77.	Insert Node
	    78.	Insert Node
	    79.	Insert Node
	    80.	Insert Bus
	    81.	Insert Bus
	    82.	Move
	    83.	Insert Bus
	    84.	Move
	    85.	Move
	    86.	Copy
	    87.	Insert Node
	    88.	Insert Node
	    89.	Insert Node
	    90.	Insert Node
	    91.	Insert Node
	    92.	Insert Bus
	    93.	Insert Bus
	    94.	Insert Bus
	    95.	Insert Bus
	    96.	Insert Bus
	    97.	Delete
	    98.	Insert Bus
	    99.	Insert Bus
	   100.	Insert Bus


RPW

	Undo Commands
	     1.	||Compilation Report||Flow Summary


